<?xml version="1.0" encoding="UTF-8"?>
<kml xmlns="http://www.opengis.net/kml/2.2">
  <Document>
    <name>Bts 700.xlsx</name>
    <Style id="icon-1621-01579B-normal">
      <IconStyle>
        <color>ff9b5701</color>
        <scale>1</scale>
        <Icon>
          <href>https://www.gstatic.com/mapspro/images/stock/503-wht-blank_maps.png</href>
        </Icon>
      </IconStyle>
      <LabelStyle>
        <scale>0</scale>
      </LabelStyle>
    </Style>
    <Style id="icon-1621-01579B-highlight">
      <IconStyle>
        <color>ff9b5701</color>
        <scale>1</scale>
        <Icon>
          <href>https://www.gstatic.com/mapspro/images/stock/503-wht-blank_maps.png</href>
        </Icon>
      </IconStyle>
      <LabelStyle>
        <scale>1</scale>
      </LabelStyle>
    </Style>
    <StyleMap id="icon-1621-01579B">
      <Pair>
        <key>normal</key>
        <styleUrl>#icon-1621-01579B-normal</styleUrl>
      </Pair>
      <Pair>
        <key>highlight</key>
        <styleUrl>#icon-1621-01579B-highlight</styleUrl>
      </Pair>
    </StyleMap>
    <Placemark>
      <name>BAR0201</name>
      <description><![CDATA[Nombre: Prophano<br>Municipio: Barranquilla<br>Latitud: 10.96431<br>Longitud: -74.82497<br>Dirección: Cra 13 No.  84B - 25]]></description>
      <styleUrl>#icon-1621-01579B</styleUrl>
      <ExtendedData>
        <Data name="Nombre">
          <value>Prophano</value>
        </Data>
        <Data name="Municipio">
          <value>Barranquilla</value>
        </Data>
        <Data name="Latitud">
          <value>10.96431</value>
        </Data>
        <Data name="Longitud">
          <value>-74.82497</value>
        </Data>
        <Data name="Dirección">
          <value>Cra 13 No.  84B - 25</value>
        </Data>
      </ExtendedData>
      <Point>
        <coordinates>
          -74.82497,10.96431,0
        </coordinates>
      </Point>
    </Placemark>
    <Placemark>
      <name>BAR0210</name>
      <description><![CDATA[Nombre: Arroyo El Salao<br>Municipio: Soledad<br>Latitud: 10.92035<br>Longitud: -74.79944<br>Dirección: Calle 63 No. 22D - 27, Barrio las Moras]]></description>
      <styleUrl>#icon-1621-01579B</styleUrl>
      <ExtendedData>
        <Data name="Nombre">
          <value>Arroyo El Salao</value>
        </Data>
        <Data name="Municipio">
          <value>Soledad</value>
        </Data>
        <Data name="Latitud">
          <value>10.92035</value>
        </Data>
        <Data name="Longitud">
          <value>-74.79944</value>
        </Data>
        <Data name="Dirección">
          <value>Calle 63 No. 22D - 27, Barrio las Moras</value>
        </Data>
      </ExtendedData>
      <Point>
        <coordinates>
          -74.79944,10.92035,0
        </coordinates>
      </Point>
    </Placemark>
    <Placemark>
      <name>BAR0216</name>
      <description><![CDATA[Nombre: Las Estrellas<br>Municipio: Barranquilla<br>Latitud: 10.97962<br>Longitud: -74.82536<br>Dirección: Calle 82 No. 27 - 48]]></description>
      <styleUrl>#icon-1621-01579B</styleUrl>
      <ExtendedData>
        <Data name="Nombre">
          <value>Las Estrellas</value>
        </Data>
        <Data name="Municipio">
          <value>Barranquilla</value>
        </Data>
        <Data name="Latitud">
          <value>10.97962</value>
        </Data>
        <Data name="Longitud">
          <value>-74.82536</value>
        </Data>
        <Data name="Dirección">
          <value>Calle 82 No. 27 - 48</value>
        </Data>
      </ExtendedData>
      <Point>
        <coordinates>
          -74.82536,10.97962,0
        </coordinates>
      </Point>
    </Placemark>
    <Placemark>
      <name>BAR0327</name>
      <description><![CDATA[Nombre: C.C. El Paseo<br>Municipio: Barranquilla<br>Latitud: 10.98195<br>Longitud: -74.77824<br>Dirección: Calle 34 No. 43 - 79]]></description>
      <styleUrl>#icon-1621-01579B</styleUrl>
      <ExtendedData>
        <Data name="Nombre">
          <value>C.C. El Paseo</value>
        </Data>
        <Data name="Municipio">
          <value>Barranquilla</value>
        </Data>
        <Data name="Latitud">
          <value>10.98195</value>
        </Data>
        <Data name="Longitud">
          <value>-74.77824</value>
        </Data>
        <Data name="Dirección">
          <value>Calle 34 No. 43 - 79</value>
        </Data>
      </ExtendedData>
      <Point>
        <coordinates>
          -74.77824,10.98195,0
        </coordinates>
      </Point>
    </Placemark>
    <Placemark>
      <name>BAR0347</name>
      <description><![CDATA[Nombre: Me Quejo<br>Municipio: Barranquilla<br>Latitud: 10.97363<br>Longitud: -74.82762<br>Dirección: Calle 85 No. 23 - 04, Barrio Por Fin]]></description>
      <styleUrl>#icon-1621-01579B</styleUrl>
      <ExtendedData>
        <Data name="Nombre">
          <value>Me Quejo</value>
        </Data>
        <Data name="Municipio">
          <value>Barranquilla</value>
        </Data>
        <Data name="Latitud">
          <value>10.97363</value>
        </Data>
        <Data name="Longitud">
          <value>-74.82762</value>
        </Data>
        <Data name="Dirección">
          <value>Calle 85 No. 23 - 04, Barrio Por Fin</value>
        </Data>
      </ExtendedData>
      <Point>
        <coordinates>
          -74.82762,10.97363,0
        </coordinates>
      </Point>
    </Placemark>
    <Placemark>
      <name>BAR0415</name>
      <description><![CDATA[Nombre: C.C Plaza Del Sol<br>Municipio: Soledad<br>Latitud: 10.9259<br>Longitud: -74.7792<br>Dirección: Calle 32 No. 30 - 15]]></description>
      <styleUrl>#icon-1621-01579B</styleUrl>
      <ExtendedData>
        <Data name="Nombre">
          <value>C.C Plaza Del Sol</value>
        </Data>
        <Data name="Municipio">
          <value>Soledad</value>
        </Data>
        <Data name="Latitud">
          <value>10.9259</value>
        </Data>
        <Data name="Longitud">
          <value>-74.7792</value>
        </Data>
        <Data name="Dirección">
          <value>Calle 32 No. 30 - 15</value>
        </Data>
      </ExtendedData>
      <Point>
        <coordinates>
          -74.7792,10.9259,0
        </coordinates>
      </Point>
    </Placemark>
    <Placemark>
      <name>BAR0468</name>
      <description><![CDATA[Nombre: Villa Aragon<br>Municipio: Soledad<br>Latitud: 10.91461<br>Longitud: -74.79368<br>Dirección: Carrera 17A entre Calles 56A y 56B, Soledad]]></description>
      <styleUrl>#icon-1621-01579B</styleUrl>
      <ExtendedData>
        <Data name="Nombre">
          <value>Villa Aragon</value>
        </Data>
        <Data name="Municipio">
          <value>Soledad</value>
        </Data>
        <Data name="Latitud">
          <value>10.91461</value>
        </Data>
        <Data name="Longitud">
          <value>-74.79368</value>
        </Data>
        <Data name="Dirección">
          <value>Carrera 17A entre Calles 56A y 56B, Soledad</value>
        </Data>
      </ExtendedData>
      <Point>
        <coordinates>
          -74.79368,10.91461,0
        </coordinates>
      </Point>
    </Placemark>
    <Placemark>
      <name>SMA0004</name>
      <description><![CDATA[Nombre: Temis<br>Municipio: Santa Marta<br>Latitud: 11.2391<br>Longitud: -74.2104<br>Dirección: Carrera 6 N° 23 - 52. ]]></description>
      <styleUrl>#icon-1621-01579B</styleUrl>
      <ExtendedData>
        <Data name="Nombre">
          <value>Temis</value>
        </Data>
        <Data name="Municipio">
          <value>Santa Marta</value>
        </Data>
        <Data name="Latitud">
          <value>11.2391</value>
        </Data>
        <Data name="Longitud">
          <value>-74.2104</value>
        </Data>
        <Data name="Dirección">
          <value>Carrera 6 N° 23 - 52. </value>
        </Data>
      </ExtendedData>
      <Point>
        <coordinates>
          -74.2104,11.2391,0
        </coordinates>
      </Point>
    </Placemark>
    <Placemark>
      <name>ATL0037</name>
      <description><![CDATA[Nombre: Palmar De Varela<br>Municipio: Barranquilla<br>Latitud: 10.7377<br>Longitud: -74.7549<br>Dirección: Calle 10 No. 9 - 126]]></description>
      <styleUrl>#icon-1621-01579B</styleUrl>
      <ExtendedData>
        <Data name="Nombre">
          <value>Palmar De Varela</value>
        </Data>
        <Data name="Municipio">
          <value>Barranquilla</value>
        </Data>
        <Data name="Latitud">
          <value>10.7377</value>
        </Data>
        <Data name="Longitud">
          <value>-74.7549</value>
        </Data>
        <Data name="Dirección">
          <value>Calle 10 No. 9 - 126</value>
        </Data>
      </ExtendedData>
      <Point>
        <coordinates>
          -74.7549,10.7377,0
        </coordinates>
      </Point>
    </Placemark>
    <Placemark>
      <name>ATL0038</name>
      <description><![CDATA[Nombre: Ecopetrol Baranoa<br>Municipio: Barranquilla<br>Latitud: 10.8513<br>Longitud: -74.8972<br>Dirección: Km 6 vía a Baranoa, Finca El Playador]]></description>
      <styleUrl>#icon-1621-01579B</styleUrl>
      <ExtendedData>
        <Data name="Nombre">
          <value>Ecopetrol Baranoa</value>
        </Data>
        <Data name="Municipio">
          <value>Barranquilla</value>
        </Data>
        <Data name="Latitud">
          <value>10.8513</value>
        </Data>
        <Data name="Longitud">
          <value>-74.8972</value>
        </Data>
        <Data name="Dirección">
          <value>Km 6 vía a Baranoa, Finca El Playador</value>
        </Data>
      </ExtendedData>
      <Point>
        <coordinates>
          -74.8972,10.8513,0
        </coordinates>
      </Point>
    </Placemark>
    <Placemark>
      <name>BOL0001</name>
      <description><![CDATA[Nombre: Lomita De Arena<br>Municipio: cartagena<br>Latitud: 10.74556<br>Longitud: -75.25858<br>Dirección: km 48 via al Mar]]></description>
      <styleUrl>#icon-1621-01579B</styleUrl>
      <ExtendedData>
        <Data name="Nombre">
          <value>Lomita De Arena</value>
        </Data>
        <Data name="Municipio">
          <value>cartagena</value>
        </Data>
        <Data name="Latitud">
          <value>10.74556</value>
        </Data>
        <Data name="Longitud">
          <value>-75.25858</value>
        </Data>
        <Data name="Dirección">
          <value>km 48 via al Mar</value>
        </Data>
      </ExtendedData>
      <Point>
        <coordinates>
          -75.25858,10.74556,0
        </coordinates>
      </Point>
    </Placemark>
    <Placemark>
      <name>BOL0005</name>
      <description><![CDATA[Nombre: Vía Boquilla<br>Municipio: cartagena<br>Latitud: 10.54211<br>Longitud: -75.45894<br>Dirección: Via al mar Cartagena - Barranquilla, Finca Florida]]></description>
      <styleUrl>#icon-1621-01579B</styleUrl>
      <ExtendedData>
        <Data name="Nombre">
          <value>Vía Boquilla</value>
        </Data>
        <Data name="Municipio">
          <value>cartagena</value>
        </Data>
        <Data name="Latitud">
          <value>10.54211</value>
        </Data>
        <Data name="Longitud">
          <value>-75.45894</value>
        </Data>
        <Data name="Dirección">
          <value>Via al mar Cartagena - Barranquilla, Finca Florida</value>
        </Data>
      </ExtendedData>
      <Point>
        <coordinates>
          -75.45894,10.54211,0
        </coordinates>
      </Point>
    </Placemark>
    <Placemark>
      <name>BOL0173</name>
      <description><![CDATA[Nombre: Turbaco VI<br>Municipio: turbaco<br>Latitud: 10.34062<br>Longitud: -75.41169<br>Dirección: Diagonal 13A No.28B - 47 Lote 14]]></description>
      <styleUrl>#icon-1621-01579B</styleUrl>
      <ExtendedData>
        <Data name="Nombre">
          <value>Turbaco VI</value>
        </Data>
        <Data name="Municipio">
          <value>turbaco</value>
        </Data>
        <Data name="Latitud">
          <value>10.34062</value>
        </Data>
        <Data name="Longitud">
          <value>-75.41169</value>
        </Data>
        <Data name="Dirección">
          <value>Diagonal 13A No.28B - 47 Lote 14</value>
        </Data>
      </ExtendedData>
      <Point>
        <coordinates>
          -75.41169,10.34062,0
        </coordinates>
      </Point>
    </Placemark>
    <Placemark>
      <name>CAR0021</name>
      <description><![CDATA[Nombre: Plaza Barlovento<br>Municipio: cartagena<br>Latitud: 10.3862<br>Longitud: -75.5016<br>Dirección: Diagonal 29B N° 54 - 125. Contiguo Centro Comercial]]></description>
      <styleUrl>#icon-1621-01579B</styleUrl>
      <ExtendedData>
        <Data name="Nombre">
          <value>Plaza Barlovento</value>
        </Data>
        <Data name="Municipio">
          <value>cartagena</value>
        </Data>
        <Data name="Latitud">
          <value>10.3862</value>
        </Data>
        <Data name="Longitud">
          <value>-75.5016</value>
        </Data>
        <Data name="Dirección">
          <value>Diagonal 29B N° 54 - 125. Contiguo Centro Comercial</value>
        </Data>
      </ExtendedData>
      <Point>
        <coordinates>
          -75.5016,10.3862,0
        </coordinates>
      </Point>
    </Placemark>
    <Placemark>
      <name>GUA0010</name>
      <description><![CDATA[Nombre: Mareygua<br>Municipio: riohacha<br>Latitud: 11.37788<br>Longitud: -72.2576<br>Dirección: Calle 15D N° 31A - 06, Barrio Mareygua, Maicao ]]></description>
      <styleUrl>#icon-1621-01579B</styleUrl>
      <ExtendedData>
        <Data name="Nombre">
          <value>Mareygua</value>
        </Data>
        <Data name="Municipio">
          <value>riohacha</value>
        </Data>
        <Data name="Latitud">
          <value>11.37788</value>
        </Data>
        <Data name="Longitud">
          <value>-72.2576</value>
        </Data>
        <Data name="Dirección">
          <value>Calle 15D N° 31A - 06, Barrio Mareygua, Maicao </value>
        </Data>
      </ExtendedData>
      <Point>
        <coordinates>
          -72.2576,11.37788,0
        </coordinates>
      </Point>
    </Placemark>
    <Placemark>
      <name>MAG0010</name>
      <description><![CDATA[Nombre: Peaje Tasajera<br>Municipio: Barranquilla<br>Latitud: 10.97845<br>Longitud: -74.32714<br>Dirección: Carrera 7 Calle 5 Esquina.]]></description>
      <styleUrl>#icon-1621-01579B</styleUrl>
      <ExtendedData>
        <Data name="Nombre">
          <value>Peaje Tasajera</value>
        </Data>
        <Data name="Municipio">
          <value>Barranquilla</value>
        </Data>
        <Data name="Latitud">
          <value>10.97845</value>
        </Data>
        <Data name="Longitud">
          <value>-74.32714</value>
        </Data>
        <Data name="Dirección">
          <value>Carrera 7 Calle 5 Esquina.</value>
        </Data>
      </ExtendedData>
      <Point>
        <coordinates>
          -74.32714,10.97845,0
        </coordinates>
      </Point>
    </Placemark>
    <Placemark>
      <name>SUC0019</name>
      <description><![CDATA[Nombre: Golfo Morrosquillo<br>Municipio: Sincelejo<br>Latitud: 9.48299<br>Longitud: -75.5977<br>Dirección: Sector Palo Blanco, carretera Tolu-Coveñas]]></description>
      <styleUrl>#icon-1621-01579B</styleUrl>
      <ExtendedData>
        <Data name="Nombre">
          <value>Golfo Morrosquillo</value>
        </Data>
        <Data name="Municipio">
          <value>Sincelejo</value>
        </Data>
        <Data name="Latitud">
          <value>9.48299</value>
        </Data>
        <Data name="Longitud">
          <value>-75.5977</value>
        </Data>
        <Data name="Dirección">
          <value>Sector Palo Blanco, carretera Tolu-Coveñas</value>
        </Data>
      </ExtendedData>
      <Point>
        <coordinates>
          -75.5977,9.48299,0
        </coordinates>
      </Point>
    </Placemark>
    <Placemark>
      <name>BAR0582</name>
      <description><![CDATA[Nombre: Siete De Abril II<br>Municipio: Barranquilla<br>Latitud: 10.92931<br>Longitud: -74.81779<br>Dirección: Calle 74 No. 4 Sur - 55, Soledad]]></description>
      <styleUrl>#icon-1621-01579B</styleUrl>
      <ExtendedData>
        <Data name="Nombre">
          <value>Siete De Abril II</value>
        </Data>
        <Data name="Municipio">
          <value>Barranquilla</value>
        </Data>
        <Data name="Latitud">
          <value>10.92931</value>
        </Data>
        <Data name="Longitud">
          <value>-74.81779</value>
        </Data>
        <Data name="Dirección">
          <value>Calle 74 No. 4 Sur - 55, Soledad</value>
        </Data>
      </ExtendedData>
      <Point>
        <coordinates>
          -74.81779,10.92931,0
        </coordinates>
      </Point>
    </Placemark>
    <Placemark>
      <name>BAR8318</name>
      <description><![CDATA[Nombre: Villa Estadio<br>Municipio: Barranquilla<br>Latitud: 10.91206<br>Longitud: -74.7994<br>Dirección: Carrera 15A con Calle 63A]]></description>
      <styleUrl>#icon-1621-01579B</styleUrl>
      <ExtendedData>
        <Data name="Nombre">
          <value>Villa Estadio</value>
        </Data>
        <Data name="Municipio">
          <value>Barranquilla</value>
        </Data>
        <Data name="Latitud">
          <value>10.91206</value>
        </Data>
        <Data name="Longitud">
          <value>-74.7994</value>
        </Data>
        <Data name="Dirección">
          <value>Carrera 15A con Calle 63A</value>
        </Data>
      </ExtendedData>
      <Point>
        <coordinates>
          -74.7994,10.91206,0
        </coordinates>
      </Point>
    </Placemark>
    <Placemark>
      <name>ATL8001</name>
      <description><![CDATA[Nombre: Alkarawi<br>Municipio: Puerto Colombia<br>Latitud: 11.00636<br>Longitud: -74.89601<br>Dirección: Vía B/quilla - Cartagena Lado Izquierdo- Predio Cantera Munarriz]]></description>
      <styleUrl>#icon-1621-01579B</styleUrl>
      <ExtendedData>
        <Data name="Nombre">
          <value>Alkarawi</value>
        </Data>
        <Data name="Municipio">
          <value>Puerto Colombia</value>
        </Data>
        <Data name="Latitud">
          <value>11.00636</value>
        </Data>
        <Data name="Longitud">
          <value>-74.89601</value>
        </Data>
        <Data name="Dirección">
          <value>Vía B/quilla - Cartagena Lado Izquierdo- Predio Cantera Munarriz</value>
        </Data>
      </ExtendedData>
      <Point>
        <coordinates>
          -74.89601,11.00636,0
        </coordinates>
      </Point>
    </Placemark>
    <Placemark>
      <name>BAR0048</name>
      <description><![CDATA[Nombre: Makro<br>Municipio: Barranquilla<br>Latitud: 11.0159<br>Longitud: -74.8357<br>Dirección: Carrera 51B N° 106 - 52]]></description>
      <styleUrl>#icon-1621-01579B</styleUrl>
      <ExtendedData>
        <Data name="Nombre">
          <value>Makro</value>
        </Data>
        <Data name="Municipio">
          <value>Barranquilla</value>
        </Data>
        <Data name="Latitud">
          <value>11.0159</value>
        </Data>
        <Data name="Longitud">
          <value>-74.8357</value>
        </Data>
        <Data name="Dirección">
          <value>Carrera 51B N° 106 - 52</value>
        </Data>
      </ExtendedData>
      <Point>
        <coordinates>
          -74.8357,11.0159,0
        </coordinates>
      </Point>
    </Placemark>
    <Placemark>
      <name>BAR0118</name>
      <description><![CDATA[Nombre: Tres Ave María<br>Municipio: Barranquilla<br>Latitud: 11.0215<br>Longitud: -74.8105<br>Dirección: Carrera 75B N° 87 - 12]]></description>
      <styleUrl>#icon-1621-01579B</styleUrl>
      <ExtendedData>
        <Data name="Nombre">
          <value>Tres Ave María</value>
        </Data>
        <Data name="Municipio">
          <value>Barranquilla</value>
        </Data>
        <Data name="Latitud">
          <value>11.0215</value>
        </Data>
        <Data name="Longitud">
          <value>-74.8105</value>
        </Data>
        <Data name="Dirección">
          <value>Carrera 75B N° 87 - 12</value>
        </Data>
      </ExtendedData>
      <Point>
        <coordinates>
          -74.8105,11.0215,0
        </coordinates>
      </Point>
    </Placemark>
    <Placemark>
      <name>BAR0419</name>
      <description><![CDATA[Nombre: Olimpica 76<br>Municipio: Barranquilla<br>Latitud: 11.00013<br>Longitud: -74.80815<br>Dirección: Calle 76 No. 49C - 26]]></description>
      <styleUrl>#icon-1621-01579B</styleUrl>
      <ExtendedData>
        <Data name="Nombre">
          <value>Olimpica 76</value>
        </Data>
        <Data name="Municipio">
          <value>Barranquilla</value>
        </Data>
        <Data name="Latitud">
          <value>11.00013</value>
        </Data>
        <Data name="Longitud">
          <value>-74.80815</value>
        </Data>
        <Data name="Dirección">
          <value>Calle 76 No. 49C - 26</value>
        </Data>
      </ExtendedData>
      <Point>
        <coordinates>
          -74.80815,11.00013,0
        </coordinates>
      </Point>
    </Placemark>
    <Placemark>
      <name>BAR0556</name>
      <description><![CDATA[Nombre: Alameda I<br>Municipio: Barranquilla<br>Latitud: 11.01997<br>Longitud: -74.82408<br>Dirección: Carrera 64 con Calle 99, parque Buenavista]]></description>
      <styleUrl>#icon-1621-01579B</styleUrl>
      <ExtendedData>
        <Data name="Nombre">
          <value>Alameda I</value>
        </Data>
        <Data name="Municipio">
          <value>Barranquilla</value>
        </Data>
        <Data name="Latitud">
          <value>11.01997</value>
        </Data>
        <Data name="Longitud">
          <value>-74.82408</value>
        </Data>
        <Data name="Dirección">
          <value>Carrera 64 con Calle 99, parque Buenavista</value>
        </Data>
      </ExtendedData>
      <Point>
        <coordinates>
          -74.82408,11.01997,0
        </coordinates>
      </Point>
    </Placemark>
    <Placemark>
      <name>BAR8042</name>
      <description><![CDATA[Nombre: La Concepción<br>Municipio: Barranquilla<br>Latitud: 11.00838<br>Longitud: -74.79864<br>Dirección: Calle 76 No.65 - 50 Edificio Baleares]]></description>
      <styleUrl>#icon-1621-01579B</styleUrl>
      <ExtendedData>
        <Data name="Nombre">
          <value>La Concepción</value>
        </Data>
        <Data name="Municipio">
          <value>Barranquilla</value>
        </Data>
        <Data name="Latitud">
          <value>11.00838</value>
        </Data>
        <Data name="Longitud">
          <value>-74.79864</value>
        </Data>
        <Data name="Dirección">
          <value>Calle 76 No.65 - 50 Edificio Baleares</value>
        </Data>
      </ExtendedData>
      <Point>
        <coordinates>
          -74.79864,11.00838,0
        </coordinates>
      </Point>
    </Placemark>
    <Placemark>
      <name>BAR8080</name>
      <description><![CDATA[Nombre: Vandux<br>Municipio: Barranquilla<br>Latitud: 11.02139<br>Longitud: -74.79854<br>Dirección: Vía 40 No. 78 - 128]]></description>
      <styleUrl>#icon-1621-01579B</styleUrl>
      <ExtendedData>
        <Data name="Nombre">
          <value>Vandux</value>
        </Data>
        <Data name="Municipio">
          <value>Barranquilla</value>
        </Data>
        <Data name="Latitud">
          <value>11.02139</value>
        </Data>
        <Data name="Longitud">
          <value>-74.79854</value>
        </Data>
        <Data name="Dirección">
          <value>Vía 40 No. 78 - 128</value>
        </Data>
      </ExtendedData>
      <Point>
        <coordinates>
          -74.79854,11.02139,0
        </coordinates>
      </Point>
    </Placemark>
    <Placemark>
      <name>BAR0043</name>
      <description><![CDATA[Nombre: Chiquinquira<br>Municipio: Barranquilla<br>Latitud: 10.9727<br>Longitud: -74.7922<br>Dirección: Calle 47C N° 29 - 93]]></description>
      <styleUrl>#icon-1621-01579B</styleUrl>
      <ExtendedData>
        <Data name="Nombre">
          <value>Chiquinquira</value>
        </Data>
        <Data name="Municipio">
          <value>Barranquilla</value>
        </Data>
        <Data name="Latitud">
          <value>10.9727</value>
        </Data>
        <Data name="Longitud">
          <value>-74.7922</value>
        </Data>
        <Data name="Dirección">
          <value>Calle 47C N° 29 - 93</value>
        </Data>
      </ExtendedData>
      <Point>
        <coordinates>
          -74.7922,10.9727,0
        </coordinates>
      </Point>
    </Placemark>
    <Placemark>
      <name>BAR0086</name>
      <description><![CDATA[Nombre: Las Americas<br>Municipio: Barranquilla<br>Latitud: 10.9387<br>Longitud: -74.8086<br>Dirección: Carrera 3C N° 50D - 117]]></description>
      <styleUrl>#icon-1621-01579B</styleUrl>
      <ExtendedData>
        <Data name="Nombre">
          <value>Las Americas</value>
        </Data>
        <Data name="Municipio">
          <value>Barranquilla</value>
        </Data>
        <Data name="Latitud">
          <value>10.9387</value>
        </Data>
        <Data name="Longitud">
          <value>-74.8086</value>
        </Data>
        <Data name="Dirección">
          <value>Carrera 3C N° 50D - 117</value>
        </Data>
      </ExtendedData>
      <Point>
        <coordinates>
          -74.8086,10.9387,0
        </coordinates>
      </Point>
    </Placemark>
    <Placemark>
      <name>BAR0708</name>
      <description><![CDATA[Nombre: Santa María II<br>Municipio: Barranquilla<br>Latitud: 10.93243<br>Longitud: -74.82626<br>Dirección: Calle 91 No.4 Sur - 30 Barrio Santa Maria]]></description>
      <styleUrl>#icon-1621-01579B</styleUrl>
      <ExtendedData>
        <Data name="Nombre">
          <value>Santa María II</value>
        </Data>
        <Data name="Municipio">
          <value>Barranquilla</value>
        </Data>
        <Data name="Latitud">
          <value>10.93243</value>
        </Data>
        <Data name="Longitud">
          <value>-74.82626</value>
        </Data>
        <Data name="Dirección">
          <value>Calle 91 No.4 Sur - 30 Barrio Santa Maria</value>
        </Data>
      </ExtendedData>
      <Point>
        <coordinates>
          -74.82626,10.93243,0
        </coordinates>
      </Point>
    </Placemark>
    <Placemark>
      <name>BAR8166</name>
      <description><![CDATA[Nombre: CUC<br>Municipio: Barranquilla<br>Latitud: 10.9949<br>Longitud: -74.79136<br>Dirección: Calle 658 con Carrera 55 Frente a la Universidad CUC]]></description>
      <styleUrl>#icon-1621-01579B</styleUrl>
      <ExtendedData>
        <Data name="Nombre">
          <value>CUC</value>
        </Data>
        <Data name="Municipio">
          <value>Barranquilla</value>
        </Data>
        <Data name="Latitud">
          <value>10.9949</value>
        </Data>
        <Data name="Longitud">
          <value>-74.79136</value>
        </Data>
        <Data name="Dirección">
          <value>Calle 658 con Carrera 55 Frente a la Universidad CUC</value>
        </Data>
      </ExtendedData>
      <Point>
        <coordinates>
          -74.79136,10.9949,0
        </coordinates>
      </Point>
    </Placemark>
    <Placemark>
      <name>BAR8325</name>
      <description><![CDATA[Nombre: Parque Muvdi<br>Municipio: Barranquilla<br>Latitud: 10.92208<br>Longitud: -74.78859<br>Dirección: Calle 45B con Carrera 24B Junto a la Cancha de Futbol]]></description>
      <styleUrl>#icon-1621-01579B</styleUrl>
      <ExtendedData>
        <Data name="Nombre">
          <value>Parque Muvdi</value>
        </Data>
        <Data name="Municipio">
          <value>Barranquilla</value>
        </Data>
        <Data name="Latitud">
          <value>10.92208</value>
        </Data>
        <Data name="Longitud">
          <value>-74.78859</value>
        </Data>
        <Data name="Dirección">
          <value>Calle 45B con Carrera 24B Junto a la Cancha de Futbol</value>
        </Data>
      </ExtendedData>
      <Point>
        <coordinates>
          -74.78859,10.92208,0
        </coordinates>
      </Point>
    </Placemark>
    <Placemark>
      <name>CAR0015</name>
      <description><![CDATA[Nombre: Hotel Yurbaco<br>Municipio: cartagena<br>Latitud: 10.4162<br>Longitud: -75.5263<br>Dirección: Av. Pedro de Heredia N° 23 - 144]]></description>
      <styleUrl>#icon-1621-01579B</styleUrl>
      <ExtendedData>
        <Data name="Nombre">
          <value>Hotel Yurbaco</value>
        </Data>
        <Data name="Municipio">
          <value>cartagena</value>
        </Data>
        <Data name="Latitud">
          <value>10.4162</value>
        </Data>
        <Data name="Longitud">
          <value>-75.5263</value>
        </Data>
        <Data name="Dirección">
          <value>Av. Pedro de Heredia N° 23 - 144</value>
        </Data>
      </ExtendedData>
      <Point>
        <coordinates>
          -75.5263,10.4162,0
        </coordinates>
      </Point>
    </Placemark>
    <Placemark>
      <name>CAR0032</name>
      <description><![CDATA[Nombre: Los Caracoles<br>Municipio: cartagena<br>Latitud: 10.3911<br>Longitud: -75.4914<br>Dirección: Avenida El Bosque N° 49 - 39, sector Los Caracoles.]]></description>
      <styleUrl>#icon-1621-01579B</styleUrl>
      <ExtendedData>
        <Data name="Nombre">
          <value>Los Caracoles</value>
        </Data>
        <Data name="Municipio">
          <value>cartagena</value>
        </Data>
        <Data name="Latitud">
          <value>10.3911</value>
        </Data>
        <Data name="Longitud">
          <value>-75.4914</value>
        </Data>
        <Data name="Dirección">
          <value>Avenida El Bosque N° 49 - 39, sector Los Caracoles.</value>
        </Data>
      </ExtendedData>
      <Point>
        <coordinates>
          -75.4914,10.3911,0
        </coordinates>
      </Point>
    </Placemark>
    <Placemark>
      <name>CAR8022</name>
      <description><![CDATA[Nombre: Bomba El Amparo II<br>Municipio: cartagena<br>Latitud: 10.39446<br>Longitud: -75.48161<br>Dirección: Transversal 54 No. 31A - 133 Badel]]></description>
      <styleUrl>#icon-1621-01579B</styleUrl>
      <ExtendedData>
        <Data name="Nombre">
          <value>Bomba El Amparo II</value>
        </Data>
        <Data name="Municipio">
          <value>cartagena</value>
        </Data>
        <Data name="Latitud">
          <value>10.39446</value>
        </Data>
        <Data name="Longitud">
          <value>-75.48161</value>
        </Data>
        <Data name="Dirección">
          <value>Transversal 54 No. 31A - 133 Badel</value>
        </Data>
      </ExtendedData>
      <Point>
        <coordinates>
          -75.48161,10.39446,0
        </coordinates>
      </Point>
    </Placemark>
    <Placemark>
      <name>MAG0020</name>
      <description><![CDATA[Nombre: Peaje Palermo<br>Municipio: Paleermo<br>Latitud: 10.9634<br>Longitud: -74.7413<br>Dirección: Calle 10 Carrera 13 N° 12 - 61]]></description>
      <styleUrl>#icon-1621-01579B</styleUrl>
      <ExtendedData>
        <Data name="Nombre">
          <value>Peaje Palermo</value>
        </Data>
        <Data name="Municipio">
          <value>Paleermo</value>
        </Data>
        <Data name="Latitud">
          <value>10.9634</value>
        </Data>
        <Data name="Longitud">
          <value>-74.7413</value>
        </Data>
        <Data name="Dirección">
          <value>Calle 10 Carrera 13 N° 12 - 61</value>
        </Data>
      </ExtendedData>
      <Point>
        <coordinates>
          -74.7413,10.9634,0
        </coordinates>
      </Point>
    </Placemark>
  </Document>
</kml>
