<?xml version="1.0" encoding="UTF-8"?>
<kml xmlns="http://www.opengis.net/kml/2.2">
  <Document>
    <name>POOLIGONOS</name>
    <Style id="icon-1899-0288D1-nodesc-normal">
      <IconStyle>
        <color>ffd18802</color>
        <scale>1</scale>
        <Icon>
          <href>https://www.gstatic.com/mapspro/images/stock/503-wht-blank_maps.png</href>
        </Icon>
        <hotSpot x="32" xunits="pixels" y="64" yunits="insetPixels"/>
      </IconStyle>
      <LabelStyle>
        <scale>0</scale>
      </LabelStyle>
      <BalloonStyle>
        <text><![CDATA[<h3>$[name]</h3>]]></text>
      </BalloonStyle>
    </Style>
    <Style id="icon-1899-0288D1-nodesc-highlight">
      <IconStyle>
        <color>ffd18802</color>
        <scale>1</scale>
        <Icon>
          <href>https://www.gstatic.com/mapspro/images/stock/503-wht-blank_maps.png</href>
        </Icon>
        <hotSpot x="32" xunits="pixels" y="64" yunits="insetPixels"/>
      </IconStyle>
      <LabelStyle>
        <scale>1</scale>
      </LabelStyle>
      <BalloonStyle>
        <text><![CDATA[<h3>$[name]</h3>]]></text>
      </BalloonStyle>
    </Style>
    <StyleMap id="icon-1899-0288D1-nodesc">
      <Pair>
        <key>normal</key>
        <styleUrl>#icon-1899-0288D1-nodesc-normal</styleUrl>
      </Pair>
      <Pair>
        <key>highlight</key>
        <styleUrl>#icon-1899-0288D1-nodesc-highlight</styleUrl>
      </Pair>
    </StyleMap>
    <Style id="poly-000000-1200-77-normal">
      <LineStyle>
        <color>ff000000</color>
        <width>1.2</width>
      </LineStyle>
      <PolyStyle>
        <color>4d000000</color>
        <fill>1</fill>
        <outline>1</outline>
      </PolyStyle>
    </Style>
    <Style id="poly-000000-1200-77-highlight">
      <LineStyle>
        <color>ff000000</color>
        <width>1.8</width>
      </LineStyle>
      <PolyStyle>
        <color>4d000000</color>
        <fill>1</fill>
        <outline>1</outline>
      </PolyStyle>
    </Style>
    <StyleMap id="poly-000000-1200-77">
      <Pair>
        <key>normal</key>
        <styleUrl>#poly-000000-1200-77-normal</styleUrl>
      </Pair>
      <Pair>
        <key>highlight</key>
        <styleUrl>#poly-000000-1200-77-highlight</styleUrl>
      </Pair>
    </StyleMap>
    <Style id="poly-000000-1200-77-nodesc-normal">
      <LineStyle>
        <color>ff000000</color>
        <width>1.2</width>
      </LineStyle>
      <PolyStyle>
        <color>4d000000</color>
        <fill>1</fill>
        <outline>1</outline>
      </PolyStyle>
      <BalloonStyle>
        <text><![CDATA[<h3>$[name]</h3>]]></text>
      </BalloonStyle>
    </Style>
    <Style id="poly-000000-1200-77-nodesc-highlight">
      <LineStyle>
        <color>ff000000</color>
        <width>1.8</width>
      </LineStyle>
      <PolyStyle>
        <color>4d000000</color>
        <fill>1</fill>
        <outline>1</outline>
      </PolyStyle>
      <BalloonStyle>
        <text><![CDATA[<h3>$[name]</h3>]]></text>
      </BalloonStyle>
    </Style>
    <StyleMap id="poly-000000-1200-77-nodesc">
      <Pair>
        <key>normal</key>
        <styleUrl>#poly-000000-1200-77-nodesc-normal</styleUrl>
      </Pair>
      <Pair>
        <key>highlight</key>
        <styleUrl>#poly-000000-1200-77-nodesc-highlight</styleUrl>
      </Pair>
    </StyleMap>
    <Placemark>
      <name>BARRANQUILLA</name>
      <description>Solo Barranquilla</description>
      <styleUrl>#poly-000000-1200-77</styleUrl>
      <Polygon>
        <outerBoundaryIs>
          <LinearRing>
            <tessellate>1</tessellate>
            <coordinates>
              -74.8258051,11.0408919,0
              -74.8422846,11.0065192,0
              -74.8388514,10.9829277,0
              -74.8374781,10.9627049,0
              -74.8374781,10.9411325,0
              -74.8271784,10.9236037,0
              -74.8052057,10.9175358,0
              -74.785293,10.9289973,0
              -74.7797998,10.9492223,0
              -74.7839197,10.9654014,0
              -74.7770533,10.9849499,0
              -74.7832331,11.0098892,0
              -74.8031458,11.024043,0
              -74.8258051,11.0408919,0
            </coordinates>
          </LinearRing>
        </outerBoundaryIs>
      </Polygon>
    </Placemark>
    <Placemark>
      <name>Atlantico</name>
      <styleUrl>#poly-000000-1200-77-nodesc</styleUrl>
      <Polygon>
        <outerBoundaryIs>
          <LinearRing>
            <tessellate>1</tessellate>
            <coordinates>
              -75.2504616,10.794321,0
              -75.2600746,10.7504756,0
              -75.2793007,10.7059491,0
              -75.2662544,10.6681639,0
              -75.2250557,10.6337483,0
              -75.1646309,10.6276746,0
              -75.0794868,10.5932544,0
              -74.988163,10.5412794,0
              -74.9016457,10.4778175,0
              -74.7842293,10.4872701,0
              -74.7114448,10.5689555,0
              -74.7354774,10.7315863,0
              -74.7485237,10.8078106,0
              -74.7698097,10.8860384,0
              -74.8165016,10.9049179,0
              -74.858387,10.941325,0
              -74.8652534,11.0168217,0
              -74.8762398,11.0451279,0
              -74.9215584,11.0417583,0
              -74.9758034,10.9696385,0
              -75.0108223,10.9757053,0
              -75.0362282,10.9548079,0
              -75.0314217,10.9251446,0
              -75.0396614,10.9015466,0
              -75.1186256,10.863786,0
              -75.1776771,10.8266951,0
              -75.2120094,10.8152296,0
              -75.2250557,10.7909485,0
              -75.2504616,10.794321,0
            </coordinates>
          </LinearRing>
        </outerBoundaryIs>
      </Polygon>
    </Placemark>
    <Placemark>
      <name>Punto 3</name>
      <styleUrl>#icon-1899-0288D1-nodesc</styleUrl>
      <Point>
        <coordinates>
          -74.9167519,10.960444,0
        </coordinates>
      </Point>
    </Placemark>
    <Placemark>
      <name>Punto 4</name>
      <styleUrl>#icon-1899-0288D1-nodesc</styleUrl>
      <Point>
        <coordinates>
          -74.8130684,11.0062806,0
        </coordinates>
      </Point>
    </Placemark>
    <Placemark>
      <name>Punto 5</name>
      <styleUrl>#icon-1899-0288D1-nodesc</styleUrl>
      <Point>
        <coordinates>
          -74.8116951,10.9557251,0
        </coordinates>
      </Point>
    </Placemark>
    <Placemark>
      <name>Punto 6</name>
      <styleUrl>#icon-1899-0288D1-nodesc</styleUrl>
      <Point>
        <coordinates>
          -75.0018959,10.8593088,0
        </coordinates>
      </Point>
    </Placemark>
    <Placemark>
      <name>Punto 7</name>
      <styleUrl>#icon-1899-0288D1-nodesc</styleUrl>
      <Point>
        <coordinates>
          -74.6748023,10.9575285,0
        </coordinates>
      </Point>
    </Placemark>
    <Placemark>
      <name>Punto 8</name>
      <styleUrl>#icon-1899-0288D1-nodesc</styleUrl>
      <Point>
        <coordinates>
          -74.6802954,10.8388585,0
        </coordinates>
      </Point>
    </Placemark>
    <Placemark>
      <name>AL LADO</name>
      <description>Capa Adjunta bq</description>
      <styleUrl>#poly-000000-1200-77</styleUrl>
      <Polygon>
        <outerBoundaryIs>
          <LinearRing>
            <tessellate>1</tessellate>
            <coordinates>
              -74.7139411,10.9844923,0
              -74.7338538,10.9790998,0
              -74.7434668,10.9582026,0
              -74.7283606,10.9393265,0
              -74.7345404,10.923146,0
              -74.7132544,10.9170781,0
              -74.7050147,10.8981994,0
              -74.7022681,10.8692047,0
              -74.7153144,10.8509973,0
              -74.7283606,10.7950195,0
              -74.7105078,10.7565709,0
              -74.6857886,10.7444282,0
              -74.6322302,10.7768076,0
              -74.6109442,10.8246958,0
              -74.6157508,10.8867367,0
              -74.6178107,10.9514613,0
              -74.6487097,11.0087577,0
              -74.7139411,10.9844923,0
            </coordinates>
          </LinearRing>
        </outerBoundaryIs>
      </Polygon>
    </Placemark>
  </Document>
</kml>
